<svg version="1.1" viewBox="0 0 24 24" xmlns="http://www.w3.org/2000/svg" xmlns:xlink="http://www.w3.org/1999/xlink">
	<path d="m6.1445 12.188 3.7546 4.1532 7.9564-8.8012" style="fill:none;stroke-linecap:square;stroke-width:3.0367;stroke:#ffffff"/>
</svg>
