<svg version="1.1" viewBox="0 0 16 16" xmlns="http://www.w3.org/2000/svg">
		<path d="m8 2.3e-7c-4.4146 0-8 3.5854-8 8 0 4.4146 3.5854 8 8 8s8-3.5854 8-8c0-4.4146-3.5854-8-8-8zm-0.30048 0.65084v3.78c-0.79215-0.01706-1.5846-0.09611-2.3774-0.24519 0.14516-0.54948 0.31698-1.0565 0.51562-1.4988 0.30064-0.66934 0.65562-1.1996 1.0282-1.5505 0.27516-0.25911 0.55238-0.41932 0.83353-0.48558zm0.61538 0.00421c0.2762 0.068309 0.54868 0.22671 0.81911 0.48137 0.37262 0.3509 0.72761 0.88114 1.0282 1.5505 0.19893 0.44291 0.37094 0.95078 0.51623 1.5012-0.78828 0.14748-1.5759 0.22576-2.3636 0.24279zm-1.9808 0.15084c-0.40605 0.41738-0.76028 0.96645-1.0577 1.6286-0.21834 0.48612-0.40419 1.0346-0.55889 1.625-0.8043-0.1852-1.6094-0.43868-2.4159-0.75962 1.0157-1.2305 2.4236-2.1236 4.0325-2.494zm3.3317 0c1.6107 0.37081 3.0201 1.2655 4.0361 2.4982-0.80722 0.32065-1.6132 0.57376-2.4183 0.75841-0.15486-0.59162-0.34137-1.141-0.5601-1.628-0.29741-0.66215-0.65164-1.2112-1.0577-1.6286zm-7.7476 3.0036c0.88491 0.36117 1.7713 0.64287 2.6587 0.84615-0.19777 0.93063-0.31356 1.9548-0.33233 3.0367h-3.6214c0.0589-1.4395 0.52831-2.7714 1.2951-3.8828zm12.166 0.0042c0.76503 1.1106 1.2332 2.441 1.2921 3.8786h-3.6214c-0.01876-1.0807-0.13434-2.1038-0.33173-3.0337 0.88814-0.20265 1.7753-0.48412 2.6611-0.84495zm-8.9038 0.96755c0.83917 0.15832 1.6787 0.24184 2.5186 0.25901v2.652h-2.8395c0.01904-1.0411 0.13249-2.0247 0.32091-2.9111zm5.6388 0.0024c0.18812 0.88571 0.30129 1.8685 0.32031 2.9087h-2.8251v-2.652c0.83517-0.01718 1.6703-0.09995 2.5048-0.25661zm-10.197 3.524h3.6214c0.01665 0.95908 0.1062 1.8762 0.26502 2.72-0.92332 0.21425-1.8457 0.51086-2.7662 0.89603-0.66272-1.0554-1.0659-2.2898-1.1202-3.616zm4.2368 0h2.8395v2.3191c-0.86226 0.0172-1.7244 0.10775-2.5859 0.27284-0.14996-0.80061-0.23685-1.6756-0.25361-2.5919zm3.4549 0h2.8251c-0.01679 0.91834-0.10366 1.7953-0.25421 2.5974-0.85643-0.16589-1.7137-0.25732-2.5709-0.27704zm3.4405 0h3.6214c-0.05443 1.3303-0.46039 2.5681-1.1268 3.6256-0.91879-0.386-1.8394-0.68272-2.7608-0.89844 0.15963-0.84576 0.24953-1.7654 0.26623-2.7272zm-4.0559 2.9291v4.1124c-0.28115-0.06626-0.55838-0.22646-0.83353-0.48558-0.37262-0.3509-0.72761-0.88114-1.0282-1.5505-0.23648-0.52651-0.43769-1.1404-0.59675-1.8155 0.81995-0.15753 1.6393-0.24373 2.4585-0.26082zm0.61538 0.0012c0.81397 0.0196 1.6282 0.10679 2.4429 0.26502-0.15888 0.67296-0.35969 1.285-0.59555 1.8101-0.30064 0.66934-0.65562 1.1996-1.0282 1.5505-0.27043 0.25466-0.54291 0.41306-0.81911 0.48137zm-3.6773 0.38882c0.16754 0.71285 0.38211 1.3672 0.63882 1.9387 0.29741 0.66215 0.65164 1.2112 1.0577 1.6286-1.7184-0.3956-3.2073-1.3879-4.2344-2.75 0.84726-0.34766 1.693-0.6194 2.5379-0.81731zm6.723 0.0066c0.84285 0.19917 1.6866 0.47152 2.5319 0.81971-1.0268 1.3572-2.5122 2.3463-4.2266 2.741 0.40605-0.41738 0.76028-0.96645 1.0577-1.6286 0.25592-0.56979 0.4697-1.2218 0.63702-1.9321z" color="#000000" color-rendering="auto" dominant-baseline="auto" image-rendering="auto" shape-rendering="auto" solid-color="#000000" style="font-feature-settings:normal;font-variant-alternates:normal;font-variant-caps:normal;font-variant-ligatures:normal;font-variant-numeric:normal;font-variant-position:normal;isolation:auto;mix-blend-mode:normal;shape-padding:0;text-decoration-color:#000000;text-decoration-line:none;text-decoration-style:solid;text-indent:0;text-orientation:mixed;text-transform:none;white-space:normal"/>
</svg>
