<svg version="1.1" viewBox="0 0 245.89 13.618" xmlns="http://www.w3.org/2000/svg">
		<defs>
				<style>.cls-1, .cls-2 {
        font-size: 21.512px;
      }
      .cls-2 {
        font-family: "Open Sans";
        font-weight: 600;
      }
      .cls-3 {
        font-weight: 700;
      }</style>
		</defs>
		<g stroke-width=".837">
				<path d="m4.8091 6.0575q1.0638 0 1.521-0.39563 0.46596-0.39563 0.46596-1.3012 0-0.89676-0.46596-1.2836-0.45717-0.38684-1.521-0.38684h-1.4243v3.3672zm-1.4243 2.3386v4.9673h-3.3848v-13.126h5.1696q2.5936 0 3.798 0.87038 1.2133 0.87039 1.2133 2.7518 0 1.3012-0.63301 2.1364-0.62422 0.83522-1.8902 1.2308 0.69455 0.15825 1.2396 0.72093 0.55388 0.55388 1.1166 1.688l1.8375 3.7277h-3.6046l-1.6001-3.2617q-0.48355-0.98468-0.98468-1.3451-0.49234-0.36046-1.3188-0.36046z"/>
				<path d="m21.852 2.4529q-1.5474 0-2.4002 1.1429-0.8528 1.1429-0.8528 3.2178 0 2.0661 0.8528 3.209 0.8528 1.1429 2.4002 1.1429 1.5561 0 2.4089-1.1429 0.8528-1.1429 0.8528-3.209 0-2.0749-0.8528-3.2178-0.8528-1.1429-2.4089-1.1429zm0-2.4529q3.165 0 4.9586 1.8111 1.7935 1.8111 1.7935 5.0025 0 3.1826-1.7935 4.9937-1.7935 1.8111-4.9586 1.8111-3.1562 0-4.9586-1.8111-1.7935-1.8111-1.7935-4.9937 0-3.1914 1.7935-5.0025 1.8023-1.8111 4.9586-1.8111z"/>
				<path d="m43.563 12.643q-0.93193 0.48355-1.943 0.72972-1.0111 0.24617-2.11 0.24617-3.2793 0-5.1959-1.8287-1.9166-1.8375-1.9166-4.9761 0-3.1475 1.9166-4.9761 1.9166-1.8375 5.1959-1.8375 1.099 0 2.11 0.24617 1.0111 0.24617 1.943 0.72972v2.7167q-0.94072-0.6418-1.8551-0.94072-0.91434-0.29892-1.9254-0.29892-1.8111 0-2.8485 1.1605-1.0374 1.1605-1.0374 3.2002 0 2.0309 1.0374 3.1914 1.0374 1.1605 2.8485 1.1605 1.0111 0 1.9254-0.29892 0.91434-0.29892 1.8551-0.94072z"/>
				<path d="m48.376 0.23738h3.3848v4.7915l4.8794-4.7915h3.9299l-6.3213 6.2158 6.9719 6.9103h-4.2376l-5.2223-5.1696v5.1696h-3.3848z"/>
				<path d="m64.338 0.23738h9.1346v2.5584h-5.7498v2.4441h5.4069v2.5584h-5.4069v3.0068h5.9432v2.5584h-9.3281z"/>
				<path d="m77.081 0.23738h12.097v2.5584h-4.3519v10.568h-3.3848v-10.568h-4.3607z"/>
				<path d="m101.29 0.23738h1.7759v13.126h-1.7759z"/>
				<path d="m106.78 0.23738h11.104v1.4946h-4.6596v11.632h-1.7847v-11.632h-4.6596z"/>
				<path d="m137.21 0.66817v1.732q-1.0111-0.48355-1.9078-0.72092-0.89676-0.23738-1.732-0.23738-1.4506 0-2.2419 0.56267-0.78246 0.56267-0.78246 1.6001 0 0.87038 0.51871 1.3188 0.5275 0.43959 1.9869 0.71213l1.0726 0.21979q1.9869 0.37805 2.9277 1.3363 0.94951 0.94951 0.94951 2.5496 0 1.9078-1.2836 2.8925-1.2748 0.98468-3.7453 0.98468-0.93193 0-1.9869-0.211-1.0462-0.211-2.1716-0.62422v-1.8287q1.0814 0.60663 2.1188 0.91434t2.0397 0.30771q1.521 0 2.3474-0.59784 0.82642-0.59784 0.82642-1.7056 0-0.96709-0.59784-1.5122-0.58905-0.54509-1.943-0.81763l-1.0814-0.211q-1.9869-0.39563-2.8749-1.2396-0.88797-0.84401-0.88797-2.3474 0-1.7408 1.2221-2.743 1.2308-1.0023 3.3848-1.0023 0.92314 0 1.8814 0.16704 0.9583 0.16704 1.9606 0.50113z"/>
				<path d="m148.1 1.4419q-1.9342 0-3.0771 1.4418-1.1341 1.4419-1.1341 3.9299 0 2.4793 1.1341 3.9211 1.1429 1.4418 3.0771 1.4418t3.0595-1.4418q1.1341-1.4419 1.1341-3.9211 0-2.4881-1.1341-3.9299-1.1254-1.4418-3.0595-1.4418zm0-1.4419q2.7606 0 4.4135 1.8551 1.6528 1.8463 1.6528 4.9586 0 3.1035-1.6528 4.9586-1.6528 1.8463-4.4135 1.8463-2.7694 0-4.431-1.8463-1.6528-1.8463-1.6528-4.9586 0-3.1123 1.6528-4.9586 1.6616-1.8551 4.431-1.8551z"/>
				<path d="m158.94 0.23738h1.7759v11.632h6.3916v1.4946h-8.1676z"/>
				<path d="m169.89 0.23738h1.7847v7.9741q0 2.11 0.76489 3.042 0.76488 0.92314 2.4793 0.92314 1.7056 0 2.4705-0.92314 0.76489-0.93193 0.76489-3.042v-7.9741h1.7847v8.1939q0 2.5672-1.2748 3.8772-1.266 1.31-3.7453 1.31-2.4881 0-3.7629-1.31-1.266-1.31-1.266-3.8772z"/>
				<path d="m183.46 0.23738h11.104v1.4946h-4.6596v11.632h-1.7847v-11.632h-4.6596z"/>
				<path d="m198.28 0.23738h1.7759v13.126h-1.7759z"/>
				<path d="m210.92 1.4419q-1.9342 0-3.0771 1.4418-1.1341 1.4419-1.1341 3.9299 0 2.4793 1.1341 3.9211 1.1429 1.4418 3.0771 1.4418t3.0595-1.4418q1.1341-1.4419 1.1341-3.9211 0-2.4881-1.1341-3.9299-1.1254-1.4418-3.0595-1.4418zm0-1.4419q2.7606 0 4.4135 1.8551 1.6528 1.8463 1.6528 4.9586 0 3.1035-1.6528 4.9586-1.6528 1.8463-4.4135 1.8463-2.7694 0-4.431-1.8463-1.6528-1.8463-1.6528-4.9586 0-3.1123 1.6528-4.9586 1.6616-1.8551 4.431-1.8551z"/>
				<path d="m221.77 0.23738h2.3914l5.8201 10.981v-10.981h1.7232v13.126h-2.3914l-5.8202-10.981v10.981h-1.7232z"/>
				<path d="m245.1 0.66817v1.732q-1.0111-0.48355-1.9078-0.72092-0.89676-0.23738-1.732-0.23738-1.4506 0-2.2419 0.56267-0.78247 0.56267-0.78247 1.6001 0 0.87038 0.51872 1.3188 0.5275 0.43959 1.9869 0.71213l1.0726 0.21979q1.9869 0.37805 2.9276 1.3363 0.94951 0.94951 0.94951 2.5496 0 1.9078-1.2836 2.8925-1.2748 0.98468-3.7453 0.98468-0.93193 0-1.9869-0.211-1.0462-0.211-2.1716-0.62422v-1.8287q1.0814 0.60663 2.1188 0.91434t2.0397 0.30771q1.521 0 2.3474-0.59784 0.82643-0.59784 0.82643-1.7056 0-0.96709-0.59784-1.5122-0.58905-0.54509-1.943-0.81763l-1.0814-0.211q-1.9869-0.39563-2.8749-1.2396-0.88797-0.84401-0.88797-2.3474 0-1.7408 1.2221-2.743 1.2308-1.0023 3.3848-1.0023 0.92314 0 1.8814 0.16704 0.9583 0.16704 1.9606 0.50113z"/>
		</g>
</svg>
